…
4. Refocus the data only to include country, isscaap_taxonomic_group, asfis_species_name, asfis_species_number, year, catch.

```r
select(fisheries_tidy, country, isscaap_taxonomic_group, asfis_species_name, asfis_species_number, year, catch)
```

```
## # A tibble: 376,771 × 6
##    country isscaap_taxonomic_group asfis_species_name asfis_species_number  year
##    <fct>   <chr>                   <chr>              <fct>                <dbl>
##  1 Albania Sharks, rays, chimaeras Squatinidae        10903XXXXX            1995
##  2 Albania Sharks, rays, chimaeras Squatinidae        10903XXXXX            1996
##  3 Albania Sharks, rays, chimaeras Squatinidae        10903XXXXX            1997
##  4 Albania Sharks, rays, chimaeras Squatinidae        10903XXXXX            1998
##  5 Albania Sharks, rays, chimaeras Squatinidae        10903XXXXX            1999
##  6 Albania Sharks, rays, chimaeras Squatinidae        10903XXXXX            2000
##  7 Albania Sharks, rays, chimaeras Squatinidae        10903XXXXX            2001
##  8 Albania Sharks, rays, chimaeras Squatinidae        10903XXXXX            2002
##  9 Albania Sharks, rays, chimaeras Squatinidae        10903XXXXX            2003
## 10 Albania Sharks, rays, chimaeras Squatinidae        10903XXXXX            2004
## # ℹ 376,761 more rows
## # ℹ 1 more variable: catch <dbl>
```
…
```
## [1] 1551
```

6. Which country had the largest overall catch in the year 2000?
China had the largest overall catch of 25,899 fish in total!

```r
fisheries_tidy %>% select(country, year, catch) %>% filter(year==2000) %>% group_by(country) %>% summarize(overall_catch=sum(catch, na.rm=T)) %>% arrange(desc(overall_catch))
```

```
## # A tibble: 193 × 2
##    country                  overall_catch
##    <fct>                            <dbl>
##  1 China                            25899
##  2 Russian Federation               12181
##  3 United States of America         11762
##  4 Japan                             8510
##  5 Indonesia                         8341
##  6 Peru                              7443
##  7 Chile                             6906
##  8 India                             6351
##  9 Thailand                          6243
## 10 Korea, Republic of                6124
## # ℹ 183 more rows
```

7. Which country caught the most sardines (_Sardina pilchardus_) between the years 1990-2000?
Morocco, with 7470!

```r
fisheries_tidy %>% select(country, year, catch, asfis_species_name) %>% filter(between(year, 1990, 2000)) %>% filter(asfis_species_name=="Sardina pilchardus") %>% group_by(country) %>% summarize(overall_salmon_catch=sum(catch, na.rm=T)) %>% arrange(desc(overall_salmon_catch))
```

```
## # A tibble: 37 × 2
##    country               overall_salmon_catch
##    <fct>                                <dbl>
##  1 Morocco                               7470
##  2 Spain                                 3507
##  3 Russian Federation                    1639
##  4 Ukraine                               1030
##  5 France                                 966
##  6 Portugal                               818
##  7 Greece                                 528
##  8 Italy                                  507
##  9 Serbia and Montenegro                  478
## 10 Denmark                                477
## # ℹ 27 more rows
```

8. Which five countries caught the most cephalopods between 2008-2012?
China, Korea, Peru, Japan, Chile.

```r
fisheries_tidy %>% select(country, year, catch, isscaap_taxonomic_group) %>% filter(between(year, 2008, 2012)) %>% filter(isscaap_taxonomic_group=="Squids, cuttlefishes, octopuses") %>% group_by(country) %>% summarize(overall_cephalopod_catch=sum(catch, na.rm=T)) %>% arrange(desc(overall_cephalopod_catch))
```

```
## # A tibble: 122 × 2
##    country                  overall_cephalopod_catch
##    <fct>                                       <dbl>
##  1 China                                        8349
##  2 Korea, Republic of                           3480
##  3 Peru                                         3422
##  4 Japan                                        3248
##  5 Chile                                        2775
##  6 United States of America                     2417
##  7 Indonesia                                    1622
##  8 Taiwan Province of China                     1394
##  9 Spain                                        1147
## 10 France                                       1138
## # ℹ 112 more rows
```

9. Which species had the highest catch total between 2008-2012? (hint: Osteichthyes is not a species)
Theragra chalcogramma, the Alaska pollock

```r
fisheries_tidy %>% 
  select(asfis_species_name, asfis_species_number, common_name, year, catch) %>% 
  filter(between(year, 2008, 2012)) %>% 
  group_by(asfis_species_name) %>% 
  summarize(overall_catch=sum(catch, na.rm=T)) %>% 
  arrange(desc(overall_catch))
```

```
## # A tibble: 1,472 × 2
##    asfis_species_name    overall_catch
##    <chr>                         <dbl>
##  1 Osteichthyes                 107808
##  2 Theragra chalcogramma         41075
##  3 Engraulis ringens             35523
##  4 Katsuwonus pelamis            32153
##  5 Trichiurus lepturus           30400
##  6 Clupea harengus               28527
##  7 Thunnus albacares             20119
##  8 Scomber japonicus             14723
##  9 Gadus morhua                  13253
## 10 Thunnus alalunga              12019
## # ℹ 1,462 more rows
```

10. Use the data to do at least one analysis of your choice.

```r
#Which year had the most fish caught? 2012, with 255,406
fisheries_tidy %>% select(year, catch) %>% group_by(year) %>% summarize(overall_catch=sum(catch, na.rm=T)) %>% arrange(desc(year))
```

```
## # A tibble: 63 × 2
##     year overall_catch
##    <dbl>         <dbl>
##  1  2012        255406
##  2  2011        243129
##  3  2010        244839
##  4  2009        251181
##  5  2008        255013
##  6  2007        268130
##  7  2006        257669
##  8  2005        251877
##  9  2004        254115
## 10  2003        240943
## # ℹ 53 more rows
```
…
